{
    "__comment": "Made with TheDestruc7i0n's advancements generator: https://advancements.thedestruc7i0n.ca",
    "display": {
        "title": {
            "text": "Fleetfoot"
        },
        "description": {
            "text": "Max out Speed"
        },
        "icon": {
            "item": "minecraft:diamond_boots"
        },
        "frame": "goal",
        "show_toast": true,
        "announce_to_chat": true,
        "hidden": false
    },
    "criteria": {},
    "parent": "mcexpheroes:adv5"
}